g;Abt;
g;Buy;
v;Buy;description:string,graphLabel:string,id:long,manufacturer:string,name:string,price:double,price:string
v;Abt;description:string,graphLabel:string,id:long,name:string,price:double,price:string
