{
    "reportFileUri": "file:///home/sc.uni-leipzig.de/bd106nolu/dragon/report/dblp-acm.json",
    "flinkHome": "/tmp/dragon/flink-1.7.2",
    "flinkLocalEnvironment": true,
    "evaluationComponent": "DRAGON_TRAIN_PREDICT",
    "groundTruthUri": "file:///home/sc.uni-leipzig.de/bd106nolu/dragon/csv/dblp-acm/PerfectMapping.csv",
    "inputGraphsCsvUri": "file:///home/sc.uni-leipzig.de/bd106nolu/dragon/logicalGraph/dblp-acm/input/",
    "goldGraphCsvUri": "file:///home/sc.uni-leipzig.de/bd106nolu/dragon/logicalGraph/dblp-acm/gold/",
    "inputDataSetUri": "file:///home/sc.uni-leipzig.de/bd106nolu/dragon/libsvm/dblp-acm",
    "modelUri": "file:///home/sc.uni-leipzig.de/bd106nolu/dragon/model/dblp-acm.json",
    "aurocCsvUri": "file:///home/sc.uni-leipzig.de/bd106nolu/dragon/auroc/dblp-acm.csv",
    "classifierEvaluationMethod": "K_FOLD",
    "trainTestSplitFraction": 0.9,
    "numOfFolds": 10,
    "classBalancerMethod": "NONE",
    "classBalanceWithReplacement": false,
    "fitnessFunctionType": "GINI_INDEX",
    "lowerThresholdBound": 0.4,
    "lowerThresholdRate": 0.05,
    "confidenceLevel": 0.75,
    "pruningMethod": "ERROR_ESTIMATE",
    "treeMaxHeight": 5,
    "splitMinSamples": 100,
    "numBootstraps": 25,
    "sampleFraction": 1.0,
    "bootstrapFeatureSize": 3,
    "scaleSampleFactor": 1.0,
    "leafMinSamples": 100,
    "taskNameHints": [
      "DragonClassifier",
      "DragonCounter"
    ],
    "metricNames": [
      "numBytesOut",
      "numBytesOutPerSecond",
      "numRecordsIn",
      "numRecordsInPerSecond",
      "numRecordsOut",
      "numRecordsOutPerSecond",
      "numBytesInLocal",
      "numBytesInLocalPerSecond",
      "numBytesInRemote",
      "numBytesInRemotePerSecond"
    ],
    "trainingSimilarityConfigs": [
        {
          "id": "JaroWinkler Title-Title",
          "sourceGraph": "DBLP",
          "targetGraph": "ACM",
          "sourceLabel": "GoldGraphVertexLabel",
          "targetLabel": "GoldGraphVertexLabel",
          "sourceAttribute": "title",
          "targetAttribute": "title",
          "weight": 1,
          "threshold": 0.7,
          "similarityMethod": "JaroWinklerComponent"
        },
        {
          "id": "EditDistance Title-Title",
          "sourceGraph": "DBLP",
          "targetGraph": "ACM",
          "sourceLabel": "GoldGraphVertexLabel",
          "targetLabel": "GoldGraphVertexLabel",
          "sourceAttribute": "title",
          "targetAttribute": "title",
          "weight": 1,
          "similarityMethod": "EditDistanceComponent"
        },
        {
          "id": "QGrams Title-Title DICE",
          "sourceGraph": "DBLP",
          "targetGraph": "ACM",
          "sourceLabel": "GoldGraphVertexLabel",
          "targetLabel": "GoldGraphVertexLabel",
          "sourceAttribute": "title",
          "targetAttribute": "title",
          "weight": 1,
          "length": 3,
          "padding": true,
          "secondMethod": "DICE",
          "similarityMethod": "QGramsComponent"
        },
        {
          "id": "QGrams Title-Title JACCARD",
          "sourceGraph": "DBLP",
          "targetGraph": "ACM",
          "sourceLabel": "GoldGraphVertexLabel",
          "targetLabel": "GoldGraphVertexLabel",
          "sourceAttribute": "title",
          "targetAttribute": "title",
          "weight": 1,
          "length": 3,
          "padding": true,
          "secondMethod": "JACCARD",
          "similarityMethod": "QGramsComponent"
        },
        {
          "id": "MongeElkan Title-Title",
          "sourceGraph": "DBLP",
          "targetGraph": "ACM",
          "sourceLabel": "GoldGraphVertexLabel",
          "targetLabel": "GoldGraphVertexLabel",
          "sourceAttribute": "title",
          "targetAttribute": "title",
          "weight": 1,
          "tokenizer": " ",
          "jaroWinklerThreshold": 0.5,
          "similarityMethod": "MongeElkanComponent"
        },
        {
          "id": "JaroWinkler Authors-Authors",
          "sourceGraph": "DBLP",
          "targetGraph": "ACM",
          "sourceLabel": "GoldGraphVertexLabel",
          "targetLabel": "GoldGraphVertexLabel",
          "sourceAttribute": "authors",
          "targetAttribute": "authors",
          "weight": 1,
          "threshold": 0.7,
          "similarityMethod": "JaroWinklerComponent"
        },
        {
          "id": "EditDistance Authors-Authors",
          "sourceGraph": "DBLP",
          "targetGraph": "ACM",
          "sourceLabel": "GoldGraphVertexLabel",
          "targetLabel": "GoldGraphVertexLabel",
          "sourceAttribute": "authors",
          "targetAttribute": "authors",
          "weight": 1,
          "similarityMethod": "EditDistanceComponent"
        },
        {
          "id": "QGrams Authors-Authors DICE",
          "sourceGraph": "DBLP",
          "targetGraph": "ACM",
          "sourceLabel": "GoldGraphVertexLabel",
          "targetLabel": "GoldGraphVertexLabel",
          "sourceAttribute": "authors",
          "targetAttribute": "authors",
          "weight": 1,
          "length": 3,
          "padding": true,
          "secondMethod": "DICE",
          "similarityMethod": "QGramsComponent"
        },
        {
          "id": "QGrams Authors-Authors JACCARD",
          "sourceGraph": "DBLP",
          "targetGraph": "ACM",
          "sourceLabel": "GoldGraphVertexLabel",
          "targetLabel": "GoldGraphVertexLabel",
          "sourceAttribute": "authors",
          "targetAttribute": "authors",
          "weight": 1,
          "length": 3,
          "padding": true,
          "secondMethod": "JACCARD",
          "similarityMethod": "QGramsComponent"
        },
        {
          "id": "MongeElkan Authors-Authors",
          "sourceGraph": "DBLP",
          "targetGraph": "ACM",
          "sourceLabel": "GoldGraphVertexLabel",
          "targetLabel": "GoldGraphVertexLabel",
          "sourceAttribute": "authors",
          "targetAttribute": "authors",
          "weight": 1,
          "tokenizer": " ",
          "jaroWinklerThreshold": 0.5,
          "similarityMethod": "MongeElkanComponent"
        }
      ]
  }